Goodreads Quote Id,Author,Book,ISBN,Quote,Tags,Quote Popularity,Order
3047,"Douglas Adams","The Hitchhiker’s Guide to the Galaxy (Hitchhiker's Guide to the Galaxy, #1)","","Don't Panic.","h2g2, hitchhiker-s-guide, humor, panic",4693,1
7545,"Emily Dickinson","","","Because I could not stop for Death – <br/>He kindly stopped for me –  <br/>The Carriage held but just Ourselves –  <br/>And Immortality.","",675,2
10071963,"Ada Lovelace","","","I am in a charming state of confusion.","charming, confusion, doubt, state-of-being, state-of-consciousness, state-of-existence, state-of-mind",16,3
7647,"Emily Dickinson","","","This is my letter to the world<br/>That never wrote to me","compassion, people, social-anxiety",1432,4
7203265,"T.S. Eliot","","","Books. Cats. Life is good.","",960,5
624,"Emily Dickinson","Selected Letters","0674250702","If I read a book and it makes my whole body so cold no fire can warm me, I know that is poetry. If I feel physically as if the top of my head were taken off, I know that is poetry. These are the only ways I know it. Is there any other way?","poetry, power-of-words",1435,6
11230688,"Alice Oseman","Loveless","000824412X","It was something adults said all the time. ""You'll change your mind when you're older. You never know what might happen. You'll feel differently one day."" As if we teenagers knew so little about ourselves that we could wake up one day a completely different person. As if the person we are right now doesn't matter at all.","growing-up, teenagers",25,7
5920,"Emily Dickinson","","","Hope is the thing with feathers <br/>That perches in the soul <br/>And sings the tune without the words <br/>And never stops at all.","feathers, hope, inspirational, souls",8717,8
953089,"Ada Lovelace","","","I never am really satisfied that I understand anything; because, understand it well as I may, my comprehension can only be an infinitesimal fraction of all I want to understand about the many connections and relations which occur to me, how the matter in question was first thought of or arrived at, etc., etc.","",38,9
19884,"Oscar Wilde","","","Be yourself; everyone else is already taken.","attributed-no-source, be-yourself, gilbert-perreira, honesty, inspirational, misattributed-oscar-wilde, quote-investigator",172241,10
110510,"George Orwell","1984","","The best books... are those that tell you what you know already.","books, reading",4223,11
2448,"Oscar Wilde","","","To live is the rarest thing in the world. Most people exist, that is all.","life",83231,12
360,"Mark Twain","","","Good friends, good books, and a sleepy conscience: this is the ideal life.","books, contentment, friends, friendship, life",46912,13
143116,"Mary Shelley","Frankenstein","","Beware; for I am fearless, and therefore powerful.","",4906,14
991,"Harper Lee","To Kill a Mockingbird","","Until I feared I would lose it, I never loved to read. One does not love breathing.","reading",13559,15
30130,"William Shakespeare","The Tempest","","Hell is empty and all the devils are here.","inspirational",8309,16
6618,"William Shakespeare","The Tempest","","O, wonder!<br/>How many goodly creatures are there here!<br/>How beauteous mankind is! O brave new world,<br/>That has such people in't!","hope, irony, wonder",365,17
54,"Albert Camus","","","Don’t walk in front of me… I may not follow<br/>Don’t walk behind me… I may not lead<br/>Walk beside me… just be my friend","attributed-no-source, friends, friendship, misattributed-albert-camus",92331,18
43118,"Bertolt Brecht","Galileo","0802130593","Nowadays, anyone who wishes to combat lies and ignorance and to write the truth must overcome at least five difficulties. He must have the courage to write the truth when truth is everywhere opposed; the keenness to recognize it, although it is everywhere concealed; the skill to manipulate it as a weapon; the judgment to select those in whose hands it will be effective; and the running to spread the truth among such persons.","bertolt-brecht",125,19
418466,"Ian Fleming","Goldfinger (James Bond, #7)","0142002046","Once is happenstance. Twice is coincidence. Three times is enemy action","007, goldfinger, james-bond",198,20
6145,"George Orwell","1984","","Who controls the past controls the future. Who controls the present controls the past.","inspirational",10451,21
28433,"Douglas Adams","The Hitchhiker’s Guide to the Galaxy (Hitchhiker's Guide to the Galaxy, #1)","","Would it save you a lot of time if I just gave up and went mad now?","british, humor, science-fiction, social-commentary, thumb, towel",3622,22
942,"Albert Einstein","","","Two things are infinite: the universe and human stupidity; and I'm not sure about the universe.","attributed-no-source, human-nature, humor, infinity, philosophy, science, stupidity, universe",146155,23
647,"Ray Bradbury","Fahrenheit 451","0307347974","Stuff your eyes with wonder, he said, live as if you'd drop dead in ten seconds. See the world. It's more fantastic than any dream made or paid for in factories.","fahrenheit-451",3654,24
482727,"Stéphane Hessel","Indignez-vous !","291193976X","The worst possible outlook is indifference that says, “I can’t do anything about it; I’ll just get by.” Behaving like that deprives you of one of the essentials of being human: the capacity and the freedom to feel outraged. That freedom is indispensable, as is the political involvement that goes with it.","freedom, human, political",22,25
1598,"Mae West","","","You only live once, but if you do it right, once is enough.","humor, life",117296,26
96074,"Albert Camus","","","But in the end one needs more courage to live than to kill himself.","enduring, going-on, suicide, survival",4559,28
631845,"Stéphane Hessel","Indignez-vous !","291193976X","Résister, c'est créer. Créer, c'est résister.","",15,29
27960,"Kurt Vonnegut","Cat’s Cradle","0140285601","Tiger got to hunt, bird got to fly;<br/>Man got to sit and wonder 'why, why, why?'<br/>Tiger got to sleep, bird got to land;<br/>Man got to tell himself he understand.","life, nature, philosophy",2578,30
4583,"Oscar Wilde","","","Always forgive your enemies; nothing annoys them so much.","attributed-no-source, enemies, forgiveness, strategy",80953,30
234665,"William Shakespeare","The Tempest","","We are such stuff as dreams are made on, and our little life is rounded with a sleep.","dreams, imagination, psychology",1235,31
16738,"Marie Curie","","","Nothing in life is to be feared, it is only to be understood. Now is the time to understand more, so that we may fear less.","fear, life, science, understanding",2799,32
61518,"Umberto Eco","Postscript to the Name of the Rose","015173156X","The author should die once he has finished writing. So as not to trouble the path of the text.","writing",40,33
7766758,"Nassim Nicholas Taleb","The Bed of Procrustes: Philosophical and Practical Aphorisms","1400069971","Hard science gives sensational results with a horribly boring process; philosophy gives boring results with a sensational process; literature gives sensational results with a sensational process; and economics gives boring results with a boring process.","",6,34
114850,"Albert Camus","","","The only way to deal with an unfree world is to become so absolutely free that your very existence is an act of rebellion.","",4223,35
14884,"William Shakespeare","The Tempest","","What's past is prologue.","past",855,36
107162,"Douglas Adams","","","Life,” said Marvin dolefully, “loathe it or ignore it, you can’t like it.","inspirational",404,37
10660176,"Amanda Gorman","The Hill We Climb: An Inaugural Poem for the Country","","Let the globe, if nothing else, say this is true:<br/>That even as we grieved, we grew<br/>That even as we hurt, we hoped<br/>That even as we tired, we tried","america, persistence, social-justice",25,38
7020205,"Friedrich Nietzsche","","","What? You seek something? You wish to multiply yourself tenfold, a hundredfold? You seek followers? Seek zeros!","the-hundredfold, the-secret, the-tenfold, zero",5,39
1106870,"Ada Lovelace","","","The Analytical Engine weaves algebraic patterns, just as the Jacquard loom weaves flowers and leaves.","programming",15,40
10737585,"Akira Himekawa","The Legend of Zelda: Twilight Princess, Vol. 7","1974715337","Your path to this point, the trials you have suffered... taking each of those things that knocked you down and made you grind your teeth and then standing up again is what makes a true hero.","hero, heroism, legend-of-zelda, twilight-princess",4,41
61522,"Umberto Eco","Postscript to the Name of the Rose","015173156X","Entering a novel is like going on a climb in the mountains: you have to learn the rhythm of respiration, acquire the pace; otherwise you stop right away.","reading",133,42
811,"Douglas Adams","The Hitchhiker’s Guide to the Galaxy (Hitchhiker's Guide to the Galaxy, #1)","","For instance, on the planet Earth, man had always assumed that he was more intelligent than dolphins because he had achieved so much&mdash;the wheel, New York, wars and so on&mdash;whilst all the dolphins had ever done was muck about in the water having a good time. But conversely, the dolphins had always believed that they were far more intelligent than man&mdash;for precisely the same reasons.","humour",10074,43
9893224,"Amal El-Mohtar","This Is How You Lose the Time War","","Books are letters in bottles, cast into the waves of time, from one person trying to save the world to another.","books",492,44
10638045,"Amanda Gorman ","","","There is always light.<br/>Only if we are brave enough to see it.<br/>There is always light.<br/>Only if we are brave enough to be it.","",101,45
9947489,"Amal El-Mohtar","This Is How You Lose the Time War","","Love is what we have, against time and death, against all the powers ranged to crush us down.","love",160,46
439058,"Timothy Zahn","Heir to the Empire (Star Wars: The Thrawn Trilogy, #1)","0553296124","If you don't want to be noticed, you don't use a Star Destroyer.","obvious, subtlety",173,47
117534,"Richard P. Feynman","","","Physics is like sex: sure, it may give some practical results, but that's not why we do it.","science, sex",1489,48
331725,"William Shakespeare","The Tempest","","This thing of darkness I<br/>Acknowledge mine.","",196,49
172987,"William Shakespeare","The Tempest","","Thought is free.","freedom, freedom-of-thought, thought",174,50
606352,"Nietzsche Friedrich Wilhelm","","","To live alone one must be either a beast or a god, says Aristotle. Leaving out the third case: one must be both - a philosopher.","",75,51
9068813,"Martha Wells","All Systems Red (The Murderbot Diaries, #1)","","You may have noticed that when I do manage to care, I’m a pessimist.","",176,52
9330715,"Martha Wells","All Systems Red (The Murderbot Diaries, #1)","","As a heartless killing machine, I was a terrible failure.","",98,53
318667,"Albert Camus","The Stranger","","Since we're all going to die, it's obvious that when and how don't matter.","",1308,54
693902,"Hayao Miyazaki","","","I would like to make a film to tell children ""it's good to be alive"".","",403,55
125537,"Rosa Luxemburg","","","Those who do not move, do not notice their chains.","evolution, freedom, history, liberation, progress, struggle",1122,56
724712,"Friedrich Nietzsche","","","...throw roses into the abyss and say: 'here is my thanks to the monster who didn't succeed in swallowing me alive.","life-and-living",538,57
9334193,"John le Carré","A Small Town in Germany","","The opposite of love is not hate but apathy","",1,58
456687,"Isaac Asimov","","","There is a cult of ignorance in the United States, and there has always been. The strain of anti-intellectualism has been a constant thread winding its way through our political and cultural life, nurtured by the false notion that  democracy means that 'my ignorance is just as good as your knowledge.","anti-intellectualism, cult, culture, democracy, ignorance, intellectual, political, politics, united-states, willful-ignorance",2262,59
448978,"John le Carré","The Honourable Schoolboy (George Smiley, #6; Karla Trilogy, #2)","0743457919","Home's where you go when you run out of homes.","anchoring, attachment, belonging, home, homecoming, homelessness, roots",1401,60
13504,"John le Carré","","","The cat sat on the mat is not a story. The cat sat on the other cat’s mat is a story.","",72,61
422746,"John le Carré","","","You should have died when I killed you.","life, murder, wish",35,62
10373311,"Alice Oseman","Loveless","000824412X","Give your friendships the magic you would give a romance. Because they're just as important. Actually, for us, they're way more important.","aromantic, asexual, friendship, lgbt",675,63
11113187,"Alice Oseman","Loveless","000824412X","You're gonna be OK. There's nothing you have to do except be.","",63,64
697029,"Yohji Yamamoto","","","Start copying what you love. Copy copy copy copy. At the end of the copy you will find yourself.","copy",94,65
7237233,"Virginia Woolf","A Room of One’s Own","","It would be a thousand pities if women wrote like men, or lived like men, or looked like men, for if two sexes are quite inadequate, considering the vastness and variety of the world, how should we manage with one only?","",17,66
7408063,"Susan Sontag","Against Interpretation and Other Essays","0312280866","In place of a hermeneutics we need an erotics of art.","art, interpretation",16,67
7238705,"Susan Sontag","Against Interpretation and Other Essays","","We live in a time in which tragedy is not an art form but a form of history.","",11,68
1056275,"Hayao Miyazaki","","","I’ve become skeptical of the unwritten rule that just because a boy and girl appear in the same feature, a romance must ensue. Rather, I want to portray a slightly different relationship, one where the two mutually inspire each other to live - if I’m able to, then perhaps I’ll be closer to portraying a true expression of love.","friendship, love, romance",666,69
10529872,"Bertolt Brecht","","","Erst kommt das Fressen, dann kommt die Moral.","",6,70
14209,"Bertolt Brecht","","","Art is not a mirror held up to reality<br/>but a hammer with which to shape it.","",1875,71
56136,"Bertolt Brecht","","","Hungry man, reach for the book: it is a weapon.","book, hunger, weapon",1521,72
370946,"Bertolt Brecht","The Threepenny Opera","1559702524","Denn die einen sind im Dunkeln<br/>Und die anderen sind im Licht.<br/>Und man sieht nur die im Lichte<br/>Die im Dunkeln sieht man nicht.","",42,73
787473,"Albert Camus","The Plague","","The evil in the world comes almost always from ignorance, and goodwill can cause as much damage as ill-will if it is not enlightened.  People are more often good than bad, though in fact that is not the question.  But they are more or less ignorant and this is what one calls vice or virtue, the most appalling vice being the ignorance that thinks it knows everything and which consequently authorizes itself to kill.  The murderer's soul is blind, and there is no true goodness or fine love without the greatest possible degree of clear-sightedness.","",368,74
